{"count":1416,"next":"https://metron.cloud/api/arc/?format=json&limit=100&offset=0&page=2","previous":null,"results":[{"id":659,"name":"'Til Death Do Us...","modified":"2022-01-16T10:12:00.426525-05:00"},{"id":931,"name":"(She) Drunk History","modified":"2023-02-15T11:47:59.483664-05:00"},{"id":871,"name":"1+2 = Fantastic Three","modified":"2022-09-08T09:53:30.626809-04:00"},{"id":1031,"name":"1602","modified":"2023-03-12T15:41:46.220978-04:00"},{"id":715,"name":"1883","modified":"2022-04-07T09:53:23.156246-04:00"},{"id":466,"name":"2099","modified":"2021-06-03T23:41:19.652401-04:00"},{"id":144,"name":"52","modified":"2020-10-26T17:08:01.284827-04:00"},{"id":1150,"name":"69","modified":"2023-04-22T12:39:51.482291-04:00"},{"id":1123,"name":"A Battle of Little Note","modified":"2023-04-21T07:46:29.944210-04:00"},{"id":1183,"name":"A Blink in Time","modified":"2023-06-10T09:18:22.452797-04:00"},{"id":774,"name":"A Chasing Tale","modified":"2022-05-30T12:55:26.688619-04:00"},{"id":177,"name":"A Court of Owls","modified":"2019-10-22T10:40:40.691833-04:00"},{"id":476,"name":"A Death in the Family","modified":"2021-07-16T15:08:02.986382-04:00"},{"id":685,"name":"A Friend In Need","modified":"2022-02-18T14:42:18.363091-05:00"},{"id":726,"name":"A Game Of You","modified":"2022-04-08T09:07:05.334857-04:00"},{"id":1401,"name":"A Jughead in the Family","modified":"2023-11-05T09:49:54.504438-05:00"},{"id":1435,"name":"A Larger World","modified":"2024-01-05T09:11:04.137892-05:00"},{"id":427,"name":"A Lonely Place of Dying","modified":"2021-02-28T11:01:20.654311-05:00"},{"id":681,"name":"A Rogue's End","modified":"2022-02-13T10:00:00.228774-05:00"},{"id":739,"name":"A Season in Hell","modified":"2022-04-09T10:30:47.290087-04:00"},{"id":18,"name":"A Trivial Pursuit","modified":"2019-06-23T15:13:19.425828-04:00"},{"id":1208,"name":"A Witch Shall Be Born","modified":"2023-07-22T14:26:18.652915-04:00"},{"id":227,"name":"A World Without Young Justice","modified":"2020-03-23T16:34:55.759584-04:00"},{"id":860,"name":"A.X.E.: Judgment Day","modified":"2022-10-03T16:37:40.153295-04:00"},{"id":603,"name":"AWOL","modified":"2021-11-05T09:01:38.359760-04:00"},{"id":152,"name":"Absolute Carnage","modified":"2021-06-30T12:02:42.892978-04:00"},{"id":909,"name":"Acts of Evil","modified":"2023-02-09T11:23:36.133557-05:00"},{"id":136,"name":"Acts of Vengeance","modified":"2019-08-23T12:35:20.286507-04:00"},{"id":1418,"name":"Adventures In the Public Domain","modified":"2023-12-08T12:04:51.952457-05:00"},{"id":744,"name":"After Kathy","modified":"2022-04-09T10:30:48.769260-04:00"},{"id":450,"name":"Age of Apocalypse","modified":"2021-04-26T12:45:21.623144-04:00"},{"id":1299,"name":"Age of Darkness","modified":"2023-09-04T16:49:49.554125-04:00"},{"id":1358,"name":"Age of Republic","modified":"2023-09-30T09:10:50.530939-04:00"},{"id":115,"name":"Age of Ultron","modified":"2019-07-23T17:34:00.769519-04:00"},{"id":1003,"name":"Age of Ultron Aftermath","modified":"2023-03-06T08:54:03.162836-05:00"},{"id":295,"name":"Age of X","modified":"2020-07-01T09:03:20.544993-04:00"},{"id":468,"name":"Age of X-Man","modified":"2021-06-13T22:43:28.905570-04:00"},{"id":407,"name":"Ages of Apocalypse","modified":"2021-01-21T16:03:25.640997-05:00"},{"id":1160,"name":"Alamo","modified":"2023-04-24T09:46:27.879935-04:00"},{"id":690,"name":"Alien Nation","modified":"2022-02-25T11:01:50.964937-05:00"},{"id":1213,"name":"All Coming Evil","modified":"2023-07-31T09:49:38.370808-04:00"},{"id":1437,"name":"All Out War","modified":"2024-01-05T09:26:45.793862-05:00"},{"id":859,"name":"Always and Forever","modified":"2022-07-24T10:46:52.721522-04:00"},{"id":523,"name":"Amazing Grace","modified":"2021-08-31T22:48:20.438664-04:00"},{"id":244,"name":"Amazons Attack!","modified":"2020-05-17T10:56:03.770233-04:00"},{"id":15,"name":"Amazons Attacked","modified":"2019-06-23T15:13:19.426994-04:00"},{"id":516,"name":"American Gothic","modified":"2021-08-16T15:10:16.800105-04:00"},{"id":714,"name":"Americana","modified":"2022-04-07T09:53:22.687645-04:00"},{"id":1152,"name":"An American in Paris","modified":"2023-04-22T15:17:57.789858-04:00"},{"id":614,"name":"Angel at War: The Fall of Saint Dumas","modified":"2021-12-12T11:02:20.593000-05:00"},{"id":613,"name":"Angel in Flames","modified":"2021-12-12T11:02:20.083503-05:00"},{"id":866,"name":"Animal House","modified":"2022-09-02T09:25:25.247006-04:00"},{"id":1247,"name":"Animals","modified":"2023-08-21T09:18:46.298620-04:00"},{"id":93,"name":"Annihilation","modified":"2019-06-23T15:13:19.427866-04:00"},{"id":95,"name":"Annihilation Conquest","modified":"2019-06-23T15:13:19.428744-04:00"},{"id":606,"name":"Annihilation: Scourge","modified":"2021-11-08T22:40:04.840473-05:00"},{"id":133,"name":"Another Return of the Sinister Six","modified":"2019-08-17T17:28:07.039355-04:00"},{"id":1177,"name":"Another Rooster in the Henhouse","modified":"2023-06-10T09:03:27.195370-04:00"},{"id":961,"name":"Another Season in Hell","modified":"2023-02-18T11:18:19.764945-05:00"},{"id":1225,"name":"Apocalypse Benson","modified":"2023-08-04T09:56:30.198149-04:00"},{"id":436,"name":"Apocalypse Wars","modified":"2021-03-25T12:25:47.168061-04:00"},{"id":1399,"name":"Archie Meets Kiss","modified":"2023-11-04T12:35:41.389311-04:00"},{"id":1398,"name":"Archie The Married Life","modified":"2023-11-04T10:53:36.597915-04:00"},{"id":663,"name":"Area 14","modified":"2022-01-16T12:11:15.493129-05:00"},{"id":165,"name":"Armageddon 2001","modified":"2019-10-06T23:35:42.301667-04:00"},{"id":135,"name":"Armor Wars","modified":"2019-08-22T17:23:11.384084-04:00"},{"id":140,"name":"Armor Wars II","modified":"2019-08-26T10:16:16.117290-04:00"},{"id":986,"name":"Arms And The Man","modified":"2023-03-03T15:45:46.941839-05:00"},{"id":661,"name":"Arms Race","modified":"2022-01-16T10:12:01.682945-05:00"},{"id":792,"name":"Army of One","modified":"2022-06-09T11:41:55.396983-04:00"},{"id":1149,"name":"Around the World","modified":"2023-04-22T12:38:50.130143-04:00"},{"id":965,"name":"Arrival","modified":"2023-02-21T11:24:56.631639-05:00"},{"id":990,"name":"Art Attack","modified":"2023-03-03T16:36:53.585368-05:00"},{"id":484,"name":"As the Crow Flies","modified":"2021-07-18T15:57:25.655919-04:00"},{"id":294,"name":"Asgardian Wars","modified":"2020-06-30T22:25:57.211268-04:00"},{"id":1005,"name":"Assault on Armor City","modified":"2023-03-06T10:14:00.583892-05:00"},{"id":545,"name":"Assault on New Olympus","modified":"2021-09-09T11:15:53.691493-04:00"},{"id":137,"name":"Atlantis Attacks","modified":"2019-08-23T14:33:05.509113-04:00"},{"id":159,"name":"Atlantis Rising","modified":"2019-09-24T11:10:38.255529-04:00"},{"id":510,"name":"Atrocities","modified":"2021-08-06T08:00:39.872742-04:00"},{"id":1342,"name":"Attack On Technodrome","modified":"2023-09-27T09:24:39.340555-04:00"},{"id":346,"name":"Avengers / Defenders War","modified":"2020-10-15T09:45:13.330168-04:00"},{"id":901,"name":"Avengers Assemble","modified":"2023-01-04T13:24:28.583929-05:00"},{"id":309,"name":"Avengers Disassembled","modified":"2020-08-06T10:42:16.824213-04:00"},{"id":387,"name":"Avengers vs. X-Men","modified":"2020-12-21T22:02:39.269542-05:00"},{"id":203,"name":"Avenging Angels","modified":"2020-02-03T11:20:49.659455-05:00"},{"id":113,"name":"Axis","modified":"2019-07-17T09:43:58.885195-04:00"},{"id":867,"name":"BFF","modified":"2022-09-08T09:53:27.488067-04:00"},{"id":339,"name":"Back In Black","modified":"2020-09-12T10:41:29.535629-04:00"},{"id":17,"name":"Back To Basics","modified":"2019-06-23T15:13:19.429841-04:00"},{"id":316,"name":"Back from the Edge","modified":"2020-09-06T10:14:29.997718-04:00"},{"id":937,"name":"Bad Apples","modified":"2023-02-15T14:04:28.654970-05:00"},{"id":873,"name":"Bad Dream","modified":"2022-09-08T09:53:32.302975-04:00"},{"id":691,"name":"Band of Sisters","modified":"2022-02-25T11:01:51.553948-05:00"},{"id":751,"name":"Banner of War","modified":"2022-05-01T16:10:19.399510-04:00"},{"id":1020,"name":"Barracuda","modified":"2023-03-10T10:12:10.058307-05:00"},{"id":196,"name":"Batgirl: Wanted","modified":"2020-01-23T15:05:51.419635-05:00"},{"id":448,"name":"Batman Incorporated","modified":"2021-04-10T12:22:24.741855-04:00"},{"id":154,"name":"Batman R.I.P.","modified":"2019-09-21T12:31:52.957073-04:00"},{"id":225,"name":"Batman Troika","modified":"2020-03-20T16:46:42.522897-04:00"}]}