{"count":20384,"next":"https://metron.cloud/api/character/?format=json&limit=1000&offset=0&page=173","previous":"https://metron.cloud/api/character/?format=json&limit=1000&offset=0&page=171","results":[{"id":14425,"name":"Specter","modified":"2022-05-01T09:42:53.254607-04:00"},{"id":5853,"name":"Spectra","modified":"2021-02-25T10:16:10.866838-05:00"},{"id":20629,"name":"Spectral","modified":"2023-06-09T08:51:32.949824-04:00"},{"id":4916,"name":"Spectre","modified":"2020-12-24T21:02:49.503342-05:00"},{"id":1421,"name":"Spectre (Corrigan)","modified":"2021-12-19T14:59:13.055364-05:00"},{"id":12335,"name":"Spectrum","modified":"2021-12-28T11:35:47.688898-05:00"},{"id":4797,"name":"Speed","modified":"2020-12-19T15:59:30.984365-05:00"},{"id":19684,"name":"Speed Buggy","modified":"2023-04-05T10:06:14.733906-04:00"},{"id":627,"name":"Speed Demon","modified":"2020-11-24T23:32:29.946231-05:00"},{"id":5120,"name":"Speed Demon (DC)","modified":"2021-01-03T15:19:24.280465-05:00"},{"id":19854,"name":"Speed Freak","modified":"2023-04-12T08:10:27.343831-04:00"},{"id":2717,"name":"Speed Queen","modified":"2019-10-07T09:43:38.342072-04:00"},{"id":3403,"name":"Speed Saunders","modified":"2020-03-06T10:53:23.552056-05:00"},{"id":1895,"name":"Speedball","modified":"2023-03-07T09:58:13.258329-05:00"},{"id":4469,"name":"Speedfreek","modified":"2020-11-10T10:29:05.200382-05:00"},{"id":17307,"name":"Speedy Gonzales","modified":"2023-01-05T13:42:39.464328-05:00"},{"id":6369,"name":"Spellbinder","modified":"2021-04-07T10:40:15.001621-04:00"},{"id":22804,"name":"Spellbinder (Marvel)","modified":"2023-10-25T11:28:00.976519-04:00"},{"id":13499,"name":"Spellbinder II","modified":"2022-03-08T08:37:52.230768-05:00"},{"id":24448,"name":"Spencer (Walking Dead)","modified":"2024-01-05T09:04:04.841856-05:00"},{"id":23896,"name":"Spencer Smythe","modified":"2023-12-04T09:47:06.879023-05:00"},{"id":1616,"name":"Sphinx (Anath-Na Mut)","modified":"2019-06-23T15:13:21.063525-04:00"},{"id":6914,"name":"Sphinx (Karim)","modified":"2021-06-07T10:47:43.894675-04:00"},{"id":6025,"name":"Sphinxor","modified":"2021-03-12T09:30:04.970693-05:00"},{"id":15864,"name":"Sphish","modified":"2022-07-21T11:21:00.934826-04:00"},{"id":9192,"name":"Spice","modified":"2021-08-19T22:33:28.621130-04:00"},{"id":19213,"name":"Spidair","modified":"2023-03-23T13:49:26.857965-04:00"},{"id":3790,"name":"Spider","modified":"2020-05-20T00:27:01.259524-04:00"},{"id":21865,"name":"Spider (Marvel)","modified":"2023-09-03T08:03:02.938593-04:00"},{"id":2418,"name":"Spider Jerusalem","modified":"2019-08-25T14:27:22.522659-04:00"},{"id":20214,"name":"Spider Widow","modified":"2023-05-02T08:53:45.375608-04:00"},{"id":19221,"name":"Spider-Boy","modified":"2023-03-23T15:56:12.750253-04:00"},{"id":20772,"name":"Spider-Boy (Bailey)","modified":"2023-07-06T09:15:06.441964-04:00"},{"id":13067,"name":"Spider-Byte","modified":"2022-02-10T10:56:51.663893-05:00"},{"id":18435,"name":"Spider-Cat","modified":"2023-02-28T14:19:51.890702-05:00"},{"id":4319,"name":"Spider-Girl (Corazón)","modified":"2023-03-07T09:58:58.294036-05:00"},{"id":2874,"name":"Spider-Girl (DC)","modified":"2019-10-25T10:37:21.663365-04:00"},{"id":4337,"name":"Spider-Girl (Parker)","modified":"2021-11-17T16:17:06.345134-05:00"},{"id":1983,"name":"Spider-Gwen","modified":"2019-08-18T09:36:54.580023-04:00"},{"id":1973,"name":"Spider-Ham","modified":"2019-06-26T23:07:09.747998-04:00"},{"id":19630,"name":"Spider-Ham 2099","modified":"2023-04-04T09:22:15.931656-04:00"},{"id":13062,"name":"Spider-Horse","modified":"2022-02-10T10:50:00.733621-05:00"},{"id":145,"name":"Spider-Man","modified":"2023-08-31T08:53:14.183600-04:00"},{"id":648,"name":"Spider-Man (Miles Morales)","modified":"2023-09-02T08:50:13.110404-04:00"},{"id":1486,"name":"Spider-Man 2099","modified":"2019-06-23T15:13:21.066510-04:00"},{"id":9491,"name":"Spider-Man Noir","modified":"2021-08-30T10:30:14.273053-04:00"},{"id":19208,"name":"Spider-Monster","modified":"2023-03-23T13:46:14.758868-04:00"},{"id":12347,"name":"Spider-Punk","modified":"2021-12-28T15:15:37.739269-05:00"},{"id":19214,"name":"Spider-Requiem","modified":"2023-03-23T13:49:38.404729-04:00"},{"id":19215,"name":"Spider-Sting","modified":"2023-03-23T13:49:49.011768-04:00"},{"id":9492,"name":"Spider-UK","modified":"2021-08-30T10:31:12.592526-04:00"},{"id":719,"name":"Spider-Woman (Drew)","modified":"2023-04-11T14:32:53.725183-04:00"},{"id":19209,"name":"Spider-Zero","modified":"2023-03-23T13:46:48.875155-04:00"},{"id":4292,"name":"Spidercide","modified":"2020-09-06T10:43:23.771000-04:00"},{"id":6559,"name":"Spiderling","modified":"2021-05-05T13:02:01.353112-04:00"},{"id":19222,"name":"Spiders Man","modified":"2023-03-23T15:56:48.465838-04:00"},{"id":13063,"name":"Spiders-Man","modified":"2022-02-10T10:50:30.708968-05:00"},{"id":11998,"name":"Spidra","modified":"2021-12-13T15:18:20.012879-05:00"},{"id":6032,"name":"Spike","modified":"2021-03-12T16:18:54.174379-05:00"},{"id":21429,"name":"Spike (Buffy)","modified":"2023-08-02T08:03:14.361857-04:00"},{"id":24032,"name":"Spike (Hanna Barbara)","modified":"2023-12-09T11:05:54.587528-05:00"},{"id":23117,"name":"Spike (Peanuts)","modified":"2023-11-02T07:58:20.485656-04:00"},{"id":6531,"name":"Spike Freeman","modified":"2021-05-04T16:12:47.223922-04:00"},{"id":24854,"name":"Spike Lee","modified":"2024-01-07T08:51:26.472918-05:00"},{"id":23444,"name":"Spike Witwicky","modified":"2023-11-16T15:49:24.197798-05:00"},{"id":22287,"name":"Spiker","modified":"2023-09-26T09:23:23.032094-04:00"},{"id":3688,"name":"Spin Doctor","modified":"2020-05-09T10:42:49.531826-04:00"},{"id":20892,"name":"Spin Shaw","modified":"2023-07-11T10:07:50.409052-04:00"},{"id":3202,"name":"Spinebender","modified":"2020-01-21T10:19:29.995975-05:00"},{"id":11443,"name":"Spinner","modified":"2021-11-11T13:30:11.647718-05:00"},{"id":1661,"name":"Spinnerette","modified":"2019-06-23T15:13:21.068329-04:00"},{"id":3999,"name":"Spiral","modified":"2020-07-04T14:24:54.359103-04:00"},{"id":20271,"name":"Spiral (Hellenders)","modified":"2023-05-07T10:57:03.458741-04:00"},{"id":1216,"name":"Spirit","modified":"2019-06-23T15:13:21.069443-04:00"},{"id":17073,"name":"Spirit (DC)","modified":"2022-11-27T09:28:04.754303-05:00"},{"id":23323,"name":"Spirit (GI Joe)","modified":"2023-11-16T14:14:14.278098-05:00"},{"id":2808,"name":"Spirit King","modified":"2019-10-14T22:30:02.194755-04:00"},{"id":4612,"name":"Spirit of '76","modified":"2020-12-09T11:29:40.667171-05:00"},{"id":9948,"name":"Spirit of Vengeance","modified":"2021-09-09T23:20:34.841999-04:00"},{"id":24587,"name":"Spiro Agnew","modified":"2024-01-06T14:40:42.239356-05:00"},{"id":16518,"name":"Spit","modified":"2022-08-29T16:20:06.326470-04:00"},{"id":17921,"name":"Spite","modified":"2023-02-17T14:08:51.823055-05:00"},{"id":1193,"name":"Spitfire","modified":"2019-06-23T15:13:21.070463-04:00"},{"id":5101,"name":"Spitfire (Bryant)","modified":"2021-01-03T11:04:41.743489-05:00"},{"id":2541,"name":"Spitfire (DC)","modified":"2019-09-10T17:03:49.935036-04:00"},{"id":6757,"name":"Splash Brannigan","modified":"2021-05-15T13:33:41.857759-04:00"},{"id":9764,"name":"Splice","modified":"2021-09-05T12:25:57.540431-04:00"},{"id":15430,"name":"Spliff","modified":"2022-06-25T09:37:40.711083-04:00"},{"id":21546,"name":"Splinter","modified":"2023-08-08T09:34:38.092651-04:00"},{"id":24079,"name":"Splinter Woodpecker","modified":"2023-12-09T14:23:07.590462-05:00"},{"id":5303,"name":"Splitlip","modified":"2021-01-17T09:37:51.090909-05:00"},{"id":10159,"name":"Splitt","modified":"2021-09-18T08:26:05.139961-04:00"},{"id":20968,"name":"Spock","modified":"2023-07-20T09:13:56.587129-04:00"},{"id":13245,"name":"Sponge","modified":"2022-02-20T11:27:27.784848-05:00"},{"id":19906,"name":"Sponge Man","modified":"2023-04-14T08:59:53.482971-04:00"},{"id":6336,"name":"Spook","modified":"2021-04-03T11:12:08.084131-04:00"},{"id":24265,"name":"Spooky","modified":"2023-12-24T09:22:42.305551-05:00"},{"id":6289,"name":"Spoor","modified":"2021-04-01T10:50:59.823299-04:00"},{"id":12493,"name":"Spore","modified":"2022-01-06T12:30:38.843125-05:00"},{"id":18372,"name":"Sporr","modified":"2023-02-27T15:13:57.935216-05:00"}]}